Cocotb/SpiToAxi/dump.vcd
$version Generated by VerilatedVcd $end
$timescale 1ps $end
 $scope module  $end
  $var wire 1 # spi_sck $end
  $var wire 1 $ spi_ss_n $end
  $var wire 1 % spi_mosi $end
  $var wire 1 & spi_miso $end
  $var wire 1 ' axi_aclk $end
  $var wire 1 ( axi_aresetn $end
  $var wire 32 ) s_axi_awaddr [31:0] $end
  $var wire 3 * s_axi_awprot [2:0] $end
  $var wire 1 + s_axi_awvalid $end
  $var wire 1 , s_axi_awready $end
  $var wire 32 - s_axi_wdata [31:0] $end
  $var wire 4 . s_axi_wstrb [3:0] $end
  $var wire 1 / s_axi_wvalid $end
  $var wire 1 0 s_axi_wready $end
  $var wire 32 1 s_axi_araddr [31:0] $end
  $var wire 3 2 s_axi_arprot [2:0] $end
  $var wire 1 3 s_axi_arvalid $end
  $var wire 1 4 s_axi_arready $end
  $var wire 32 5 s_axi_rdata [31:0] $end
  $var wire 2 6 s_axi_rresp [1:0] $end
  $var wire 1 7 s_axi_rvalid $end
  $var wire 1 8 s_axi_rready $end
  $var wire 2 9 s_axi_bresp [1:0] $end
  $var wire 1 : s_axi_bvalid $end
  $var wire 1 ; s_axi_bready $end
  $scope module spi2axi $end
   $var wire 32 '! SPI_CPOL [31:0] $end
   $var wire 32 '! SPI_CPHA [31:0] $end
   $var wire 32 (! AXI_ADDR_WIDTH [31:0] $end
   $var wire 1 < spi_sck $end
   $var wire 1 = spi_ss_n $end
   $var wire 1 > spi_mosi $end
   $var wire 1 ? spi_miso $end
   $var wire 1 @ axi_aclk $end
   $var wire 1 A axi_aresetn $end
   $var wire 32 B s_axi_awaddr [31:0] $end
   $var wire 3 C s_axi_awprot [2:0] $end
   $var wire 1 D s_axi_awvalid $end
   $var wire 1 E s_axi_awready $end
   $var wire 32 F s_axi_wdata [31:0] $end
   $var wire 4 G s_axi_wstrb [3:0] $end
   $var wire 1 H s_axi_wvalid $end
   $var wire 1 I s_axi_wready $end
   $var wire 32 J s_axi_araddr [31:0] $end
   $var wire 3 K s_axi_arprot [2:0] $end
   $var wire 1 L s_axi_arvalid $end
   $var wire 1 M s_axi_arready $end
   $var wire 32 N s_axi_rdata [31:0] $end
   $var wire 2 O s_axi_rresp [1:0] $end
   $var wire 1 P s_axi_rvalid $end
   $var wire 1 Q s_axi_rready $end
   $var wire 2 R s_axi_bresp [1:0] $end
   $var wire 1 S s_axi_bvalid $end
   $var wire 1 T s_axi_bready $end
   $var wire 8 )! CMD_WRITE [7:0] $end
   $var wire 8 *! CMD_READ [7:0] $end
   $var wire 32 +! SPI_FRAME_LENGTH_BYTES [31:0] $end
   $var wire 32 U spi_state [31:0] $end
   $var wire 32 V axi_state [31:0] $end
   $var wire 1 W spi_sck_sync_old $end
   $var wire 8 X spi_rx_shreg [7:0] $end
   $var wire 8 Y spi_tx_shreg [7:0] $end
   $var wire 1 Z axi_bresp_valid $end
   $var wire 2 [ axi_bresp [1:0] $end
   $var wire 2 \ axi_rresp [1:0] $end
   $var wire 1 ] axi_rdata_valid $end
   $var wire 32 ^ axi_rdata [31:0] $end
   $var wire 8 _ spi_rx_cmd [7:0] $end
   $var wire 32 ` spi_rx_addr [31:0] $end
   $var wire 32 a spi_rx_wdata [31:0] $end
   $var wire 1 b spi_rx_valid $end
   $var wire 1 c s_axi_awvalid_int $end
   $var wire 1 d s_axi_wvalid_int $end
   $var wire 1 e axi_fsm_reset $end
   $var wire 32 f s_axi_awaddr_int [31:0] $end
   $var wire 3 g s_axi_awprot_int [2:0] $end
   $var wire 32 h s_axi_wdata_int [31:0] $end
   $var wire 4 i s_axi_wstrb_int [3:0] $end
   $var wire 32 j s_axi_araddr_int [31:0] $end
   $var wire 3 k s_axi_arprot_int [2:0] $end
   $var wire 1 l s_axi_arvalid_int $end
   $var wire 1 m s_axi_rready_int $end
   $var wire 1 n s_axi_bready_int $end
   $var wire 1 o spi_sck_sync $end
   $var wire 1 p spi_ss_n_sync $end
   $var wire 1 q axi_areset $end
   $scope module spi_fsm $end
    $var wire 3 r spi_rx_bit_idx [2:0] $end
    $var wire 5 s spi_rx_byte_idx [4:0] $end
    $var wire 3 t spi_tx_bit_idx [2:0] $end
    $var wire 5 u spi_tx_byte_idx [4:0] $end
    $var wire 1 v spi_sck_re $end
    $var wire 1 w spi_sck_fe $end
    $var wire 3 x spi_tx_byte [2:0] $end
   $upscope $end
   $scope module spi_sck_sync_inst $end
    $var wire 32 '! G_INIT_VALUE [31:0] $end
    $var wire 32 ,! G_NUM_GUARD_FFS [31:0] $end
    $var wire 1 y i_reset $end
    $var wire 1 z i_clk $end
    $var wire 1 { i_data $end
    $var wire 1 | o_data $end
    $var wire 1 } s_data_sync_r $end
    $var wire 1 ~ s_data_guard_r [0:0] $end
   $upscope $end
   $scope module spi_ss_sync_inst $end
    $var wire 32 '! G_INIT_VALUE [31:0] $end
    $var wire 32 ,! G_NUM_GUARD_FFS [31:0] $end
    $var wire 1 !! i_reset $end
    $var wire 1 "! i_clk $end
    $var wire 1 #! i_data $end
    $var wire 1 $! o_data $end
    $var wire 1 %! s_data_sync_r $end
    $var wire 1 &! s_data_guard_r [0:0] $end
   $upscope $end
  $upscope $end
 $upscope $end
$enddefinitions $end


#0
0#
1$
0%
0&
0'
0(
b00000000000000000000000000000000 )
b000 *
0+
0,
b00000000000000000000000000000000 -
b0000 .
0/
00
b00000000000000000000000000000000 1
b000 2
03
04
b00000000000000000000000000000000 5
b00 6
07
08
b00 9
0:
0;
0<
1=
0>
0?
0@
0A
b00000000000000000000000000000000 B
b000 C
0D
0E
b00000000000000000000000000000000 F
b0000 G
0H
0I
b00000000000000000000000000000000 J
b000 K
0L
0M
b00000000000000000000000000000000 N
b00 O
0P
0Q
b00 R
0S
0T
b00000000000000000000000000000000 U
b00000000000000000000000000000000 V
0W
b00000000 X
b00000000 Y
0Z
b00 [
b00 \
0]
b00000000000000000000000000000000 ^
b00000000 _
b00000000000000000000000000000000 `
b00000000000000000000000000000000 a
0b
0c
0d
1e
b00000000000000000000000000000000 f
b000 g
b00000000000000000000000000000000 h
b0000 i
b00000000000000000000000000000000 j
b000 k
0l
0m
0n
0o
0p
1q
b000 r
b00000 s
b000 t
b00000 u
0v
0w
b000 x
1y
0z
0{
0|
0}
0~
1!!
0"!
1#!
0$!
0%!
0&!
b00000000000000000000000000000000 '!
b00000000000000000000000000100000 (!
b00000000 )!
b00000001 *!
b00000000000000000000000000001011 +!
b00000000000000000000000000000001 ,!
#5000
1'
1@
1z
1"!
#10000
0'
0@
0z
0"!
#15000
1'
1@
1z
1"!
#20000
1#
0'
1<
0@
0z
1{
0"!
#25000
1'
1@
1z
1"!
#30000
0'
0@
0z
0"!
#35000
1'
1@
1z
1"!
#40000
0#
0'
0<
0@
0z
0{
0"!
#45000
1'
1@
1z
1"!
#50000
0'
0@
0z
0"!
#55000
1'
1@
1z
1"!
#60000
1#
0'
1<
0@
0z
1{
0"!
#65000
1'
1@
1z
1"!
#70000
0'
0@
0z
0"!
#75000
1'
1@
1z
1"!
#80000
0#
0'
0<
0@
0z
0{
0"!
#85000
1'
1@
1z
1"!
#90000
0'
0@
0z
0"!
#95000
1'
1@
1z
1"!
#100000
1#
0'
1(
1<
0@
1A
0q
0y
0z
1{
0!!
0"!
#105000
1'
1@
0e
1z
1}
1"!
1%!
#110000
0$
0'
0=
0@
0z
0"!
0#!
#115000
1'
1@
1o
1p
1z
1|
1~
1"!
1$!
0%!
1&!
#120000
0#
0'
0<
0@
0z
0{
0"!
#125000
1'
1@
1W
1e
0p
1z
0}
1"!
0$!
0&!
#130000
0'
0@
0z
0"!
#135000
1'
1@
0e
0o
1z
0|
0~
1"!
#140000
1#
0'
1<
0@
0z
1{
0"!
#145000
1'
1@
0W
b001 t
1w
1z
1}
1"!
#150000
0'
0@
0z
0"!
#155000
1'
1@
1o
b000 t
0w
1z
1|
1~
1"!
#160000
0#
0'
0<
0@
0z
0{
0"!
#165000
1'
1@
1W
b001 r
1v
1z
0}
1"!
#170000
0'
0@
0z
0"!
#175000
1'
1@
0o
b000 r
0v
1z
0|
0~
1"!
#180000
1#
0'
1<
0@
0z
1{
0"!
#185000
1'
1@
0W
b001 t
1w
1z
1}
1"!
#190000
0'
0@
0z
0"!
#195000
1'
1@
1o
b000 t
0w
1z
1|
1~
1"!
#200000
0#
0'
0<
0@
0z
0{
0"!
#205000
1'
1@
1W
b001 r
1v
1z
0}
1"!
#210000
0'
0@
0z
0"!
#215000
1'
1@
0o
b000 r
0v
1z
0|
0~
1"!
#220000
1#
0'
1<
0@
0z
1{
0"!
#225000
1'
1@
0W
b001 t
1w
1z
1}
1"!
#230000
0'
0@
0z
0"!
#235000
1'
1@
1o
b000 t
0w
1z
1|
1~
1"!
#240000
0#
0'
0<
0@
0z
0{
0"!
#245000
1'
1@
1W
b001 r
1v
1z
0}
1"!
#250000
0'
0@
0z
0"!
#255000
1'
1@
0o
b000 r
0v
1z
0|
0~
1"!
#260000
1#
0'
1<
0@
0z
1{
0"!
#265000
1'
1@
0W
b001 t
1w
1z
1}
1"!
#270000
0'
0@
0z
0"!
#275000
1'
1@
1o
b000 t
0w
1z
1|
1~
1"!
#280000
0#
0'
0<
0@
0z
0{
0"!
#285000
1'
1@
1W
b001 r
1v
1z
0}
1"!
#290000
0'
0@
0z
0"!
#295000
1'
1@
0o
b000 r
0v
1z
0|
0~
1"!
#300000
1#
0'
1<
0@
0z
1{
0"!
#305000
1'
1@
0W
b001 t
1w
1z
1}
1"!
#310000
0'
0@
0z
0"!
#315000
1'
1@
1o
b000 t
0w
1z
1|
1~
1"!
#320000
0#
0'
0<
0@
0z
0{
0"!
#325000
1'
1@
1W
b001 r
1v
1z
0}
1"!
#330000
0'
0@
0z
0"!
#335000
1'
1@
0o
b000 r
0v
1z
0|
0~
1"!
#340000
1#
0'
1<
0@
0z
1{
0"!
#345000
1'
1@
0W
b001 t
1w
1z
1}
1"!
#350000
0'
0@
0z
0"!
#355000
1'
1@
1o
b000 t
0w
1z
1|
1~
1"!
#360000
0#
0'
0<
0@
0z
0{
0"!
#365000
1'
1@
1W
b001 r
1v
1z
0}
1"!
#370000
0'
0@
0z
0"!
#375000
1'
1@
0o
b000 r
0v
1z
0|
0~
1"!
#380000
1#
0'
1<
0@
0z
1{
0"!
#385000
1'
1@
0W
b001 t
1w
1z
1}
1"!
#390000
0'
0@
0z
0"!
#395000
1'
1@
1o
b000 t
0w
1z
1|
1~
1"!
#400000
0#
0'
0<
0@
0z
0{
0"!
#405000
1'
1@
1W
b001 r
1v
1z
0}
1"!
#410000
0'
0@
0z
0"!
#415000
1'
1@
0o
b000 r
0v
1z
0|
0~
1"!
#420000
1#
0'
1<
0@
0z
1{
0"!
#425000
1'
1@
0W
b001 t
1w
1z
1}
1"!
#430000
0'
0@
0z
0"!
#435000
1'
1@
1o
b000 t
0w
1z
1|
1~
1"!
#440000
0#
0'
0<
0@
0z
0{
0"!
#445000
1'
1@
1W
b001 r
1v
1z
0}
1"!
#450000
0'
0@
0z
0"!
#455000
1'
1@
0o
b000 r
0v
1z
0|
0~
1"!
#460000
1#
0'
1<
0@
0z
1{
0"!
#465000
1'
1@
0W
b001 t
1w
1z
1}
1"!
#470000
0'
0@
0z
0"!
#475000
1'
1@
1o
b000 t
0w
1z
1|
1~
1"!
#480000
0#
0'
0<
0@
0z
0{
0"!
#485000
1'
1@
1W
b001 r
1v
1z
0}
1"!
#490000
0'
0@
0z
0"!
#495000
1'
1@
0o
b000 r
0v
1z
0|
0~
1"!
#500000
1#
0'
1<
0@
0z
1{
0"!
#505000
1'
1@
0W
b001 t
1w
1z
1}
1"!
#510000
0'
0@
0z
0"!
#515000
1'
1@
1o
b000 t
0w
1z
1|
1~
1"!
#520000
0#
0'
0<
0@
0z
0{
0"!
#525000
1'
1@
1W
b001 r
1v
1z
0}
1"!
#530000
0'
0@
0z
0"!
#535000
1'
1@
0o
b000 r
0v
1z
0|
0~
1"!
#540000
1#
0'
1<
0@
0z
1{
0"!
#545000
1'
1@
0W
b001 t
1w
1z
1}
1"!
#550000
0'
0@
0z
0"!
#555000
1'
1@
1o
b000 t
0w
1z
1|
1~
1"!
#560000
0#
0'
0<
0@
0z
0{
0"!
#565000
1'
1@
1W
b001 r
1v
1z
0}
1"!
#570000
0'
0@
0z
0"!
#575000
1'
1@
0o
b000 r
0v
1z
0|
0~
1"!
#580000
1#
1%
0'
1<
1>
0@
0z
1{
0"!
#585000
1'
1@
0W
b001 t
1w
1z
1}
1"!
#590000
0'
0@
0z
0"!
#595000
1'
1@
1o
b000 t
0w
1z
1|
1~
1"!
#600000
0#
0'
0<
0@
0z
0{
0"!
#605000
1'
1@
1W
b00000001 X
b001 r
1v
1z
0}
1"!
#610000
0'
0@
0z
0"!
#615000
1'
1@
0o
b000 r
0v
1z
0|
0~
1"!
#620000
1#
0%
0'
1<
0>
0@
0z
1{
0"!
#625000
1'
1@
0W
b001 t
1w
1z
1}
1"!
#630000
0'
0@
0z
0"!
#635000
1'
1@
1o
b000 t
0w
1z
1|
1~
1"!
#640000
0#
0'
0<
0@
0z
0{
0"!
#645000
1'
1@
1W
b00000010 X
b001 r
1v
1z
0}
1"!
#650000
0'
0@
0z
0"!
#655000
1'
1@
0o
b000 r
0v
1z
0|
0~
1"!
#660000
1#
0'
1<
0@
0z
1{
0"!
#665000
1'
1@
0W
b001 t
1w
1z
1}
1"!
#670000
0'
0@
0z
0"!
#675000
1'
1@
1o
b000 t
0w
1z
1|
1~
1"!
#680000
0#
0'
0<
0@
0z
0{
0"!
#685000
1'
1@
1W
b00000100 X
b001 r
1v
1z
0}
1"!
#690000
0'
0@
0z
0"!
#695000
1'
1@
0o
b000 r
0v
1z
0|
0~
1"!
#700000
1#
1%
0'
1<
1>
0@
0z
1{
0"!
#705000
1'
1@
0W
b001 t
1w
1z
1}
1"!
#710000
0'
0@
0z
0"!
#715000
1'
1@
1o
b000 t
0w
1z
1|
1~
1"!
#720000
0#
0'
0<
0@
0z
0{
0"!
#725000
1'
1@
1W
b00001001 X
b001 r
1v
1z
0}
1"!
#730000
0'
0@
0z
0"!
#735000
1'
1@
0o
b000 r
0v
1z
0|
0~
1"!
#740000
1#
0'
1<
0@
0z
1{
0"!
#745000
1'
1@
0W
b001 t
1w
1z
1}
1"!
#750000
0'
0@
0z
0"!
#755000
1'
1@
1o
b000 t
0w
1z
1|
1~
1"!
#760000
0#
0'
0<
0@
0z
0{
0"!
#765000
1'
1@
1W
b00010011 X
b001 r
1v
1z
0}
1"!
#770000
0'
0@
0z
0"!
#775000
1'
1@
0o
b000 r
0v
1z
0|
0~
1"!
#780000
1#
0%
0'
1<
0>
0@
0z
1{
0"!
#785000
1'
1@
0W
b001 t
1w
1z
1}
1"!
#790000
0'
0@
0z
0"!
#795000
1'
1@
1o
b000 t
0w
1z
1|
1~
1"!
#800000
0#
0'
0<
0@
0z
0{
0"!
#805000
1'
1@
1W
b00100110 X
b001 r
1v
1z
0}
1"!
#810000
0'
0@
0z
0"!
#815000
1'
1@
0o
b000 r
0v
1z
0|
0~
1"!
#820000
1#
1%
0'
1<
1>
0@
0z
1{
0"!
#825000
1'
1@
0W
b001 t
1w
1z
1}
1"!
#830000
0'
0@
0z
0"!
#835000
1'
1@
1o
b000 t
0w
1z
1|
1~
1"!
#840000
0#
0'
0<
0@
0z
0{
0"!
#845000
1'
1@
1W
b01001101 X
b001 r
1v
1z
0}
1"!
#850000
0'
0@
0z
0"!
#855000
1'
1@
0o
b000 r
0v
1z
0|
0~
1"!
#860000
1#
0'
1<
0@
0z
1{
0"!
#865000
1'
1@
0W
b001 t
1w
1z
1}
1"!
#870000
0'
0@
0z
0"!
#875000
1'
1@
1o
b000 t
0w
1z
1|
1~
1"!
#880000
0#
0'
0<
0@
0z
0{
0"!
#885000
1'
1@
1W
b10011011 X
b001 r
1v
1z
0}
1"!
#890000
0'
0@
0z
0"!
#895000
1'
1@
0o
b000 r
0v
1z
0|
0~
1"!
#900000
1#
0%
0'
1<
0>
0@
0z
1{
0"!
#905000
1'
1@
0W
b001 t
1w
1z
1}
1"!
#910000
0'
0@
0z
0"!
#915000
1'
1@
1o
b000 t
0w
1z
1|
1~
1"!
#920000
0#
0'
0<
0@
0z
0{
0"!
#925000
1'
1@
1W
b00110110 X
b001 r
1v
1z
0}
1"!
#930000
0'
0@
0z
0"!
#935000
1'
1@
0o
b000 r
0v
1z
0|
0~
1"!
#940000
1#
0'
1<
0@
0z
1{
0"!
#945000
1'
1@
0W
b001 t
1w
1z
1}
1"!
#950000
0'
0@
0z
0"!
#955000
1'
1@
1o
b000 t
0w
1z
1|
1~
1"!
#960000
0#
0'
0<
0@
0z
0{
0"!
#965000
1'
1@
1W
b01101100 X
b001 r
1v
1z
0}
1"!
#970000
0'
0@
0z
0"!
#975000
1'
1@
0o
b000 r
0v
1z
0|
0~
1"!
#980000
1#
1%
0'
1<
1>
0@
0z
1{
0"!
#985000
1'
1@
0W
b001 t
1w
1z
1}
1"!
#990000
0'
0@
0z
0"!
#995000
1'
1@
1o
b000 t
0w
1z
1|
1~
1"!
#1000000
0#
0'
0<
0@
0z
0{
0"!
#1005000
1'
1@
1W
b11011001 X
b001 r
1v
1z
0}
1"!
#1010000
0'
0@
0z
0"!
#1015000
1'
1@
0o
b000 r
0v
1z
0|
0~
1"!
#1020000
1#
0%
0'
1<
0>
0@
0z
1{
0"!
#1025000
1'
1@
0W
b001 t
1w
1z
1}
1"!
#1030000
0'
0@
0z
0"!
#1035000
1'
1@
1o
b000 t
0w
1z
1|
1~
1"!
#1040000
0#
0'
0<
0@
0z
0{
0"!
#1045000
1'
1@
1W
b10110010 X
b001 r
1v
1z
0}
1"!
#1050000
0'
0@
0z
0"!
#1055000
1'
1@
0o
b000 r
0v
1z
0|
0~
1"!
#1060000
1#
0'
1<
0@
0z
1{
0"!
#1065000
1'
1@
0W
b001 t
1w
1z
1}
1"!
#1070000
0'
0@
0z
0"!
#1075000
1'
1@
1o
b000 t
0w
1z
1|
1~
1"!
#1080000
0#
0'
0<
0@
0z
0{
0"!
#1085000
1'
1@
1W
b01100100 X
b001 r
1v
1z
0}
1"!
#1090000
0'
0@
0z
0"!
#1095000
1'
1@
0o
b000 r
0v
1z
0|
0~
1"!
#1100000
1#
0'
1<
0@
0z
1{
0"!
#1105000
1'
1@
0W
b001 t
1w
1z
1}
1"!
#1110000
0'
0@
0z
0"!
#1115000
1'
1@
1o
b000 t
0w
1z
1|
1~
1"!
#1120000
0#
0'
0<
0@
0z
0{
0"!
#1125000
1'
1@
1W
b11001000 X
b001 r
1v
1z
0}
1"!
#1130000
0'
0@
0z
0"!
#1135000
1'
1@
0o
b000 r
0v
1z
0|
0~
1"!
#1140000
1#
0'
1<
0@
0z
1{
0"!
#1145000
1'
1@
0W
b001 t
1w
1z
1}
1"!
#1150000
0'
0@
0z
0"!
#1155000
1'
1@
1o
b000 t
0w
1z
1|
1~
1"!
#1160000
0#
0'
0<
0@
0z
0{
0"!
#1165000
1'
1@
1W
b10010000 X
b001 r
1v
1z
0}
1"!
#1170000
0'
0@
0z
0"!
#1175000
1'
1@
0o
b000 r
0v
1z
0|
0~
1"!
#1180000
1#
1%
0'
1<
1>
0@
0z
1{
0"!
#1185000
1'
1@
0W
b001 t
1w
1z
1}
1"!
#1190000
0'
0@
0z
0"!
#1195000
1'
1@
1o
b000 t
0w
1z
1|
1~
1"!
#1200000
0#
0'
0<
0@
0z
0{
0"!
#1205000
1'
1@
1W
b00100001 X
b001 r
1v
1z
0}
1"!
#1210000
0'
0@
0z
0"!
#1215000
1'
1@
0o
b000 r
0v
1z
0|
0~
1"!
#1220000
1#
0%
0'
1<
0>
0@
0z
1{
0"!
#1225000
1'
1@
0W
b001 t
1w
1z
1}
1"!
#1230000
0'
0@
0z
0"!
#1235000
1'
1@
1o
b000 t
0w
1z
1|
1~
1"!
#1240000
0#
0'
0<
0@
0z
0{
0"!
#1245000
1'
1@
1W
b01000010 X
b001 r
1v
1z
0}
1"!
#1250000
0'
0@
0z
0"!
#1255000
1'
1@
0o
b000 r
0v
1z
0|
0~
1"!
#1260000
1#
1%
0'
1<
1>
0@
0z
1{
0"!
#1265000
1'
1@
0W
b001 t
1w
1z
1}
1"!
#1270000
0'
0@
0z
0"!
#1275000
1'
1@
1o
b000 t
0w
1z
1|
1~
1"!
#1280000
0#
0'
0<
0@
0z
0{
0"!
#1285000
1'
1@
1W
b10000101 X
b001 r
1v
1z
0}
1"!
#1290000
0'
0@
0z
0"!
#1295000
1'
1@
0o
b000 r
0v
1z
0|
0~
1"!
#1300000
1#
0'
1<
0@
0z
1{
0"!
#1305000
1'
1@
0W
b001 t
1w
1z
1}
1"!
#1310000
0'
0@
0z
0"!
#1315000
1'
1@
1o
b000 t
0w
1z
1|
1~
1"!
#1320000
0#
0'
0<
0@
0z
0{
0"!
#1325000
1'
1@
1W
b00001011 X
b001 r
1v
1z
0}
1"!
#1330000
0'
0@
0z
0"!
#1335000
1'
1@
0o
b000 r
0v
1z
0|
0~
1"!
#1340000
1#
0'
1<
0@
0z
1{
0"!
#1345000
1'
1@
0W
b001 t
1w
1z
1}
1"!
#1350000
0'
0@
0z
0"!
#1355000
1'
1@
1o
b000 t
0w
1z
1|
1~
1"!
#1360000
0#
0'
0<
0@
0z
0{
0"!
#1365000
1'
1@
1W
b00010111 X
b001 r
1v
1z
0}
1"!
#1370000
0'
0@
0z
0"!
#1375000
1'
1@
0o
b000 r
0v
1z
0|
0~
1"!
#1380000
1#
0%
0'
1<
0>
0@
0z
1{
0"!
#1385000
1'
1@
0W
b001 t
1w
1z
1}
1"!
#1390000
0'
0@
0z
0"!
#1395000
1'
1@
1o
b000 t
0w
1z
1|
1~
1"!
#1400000
0#
0'
0<
0@
0z
0{
0"!
#1405000
1'
1@
1W
b00101110 X
b001 r
1v
1z
0}
1"!
#1410000
0'
0@
0z
0"!
#1415000
1'
1@
0o
b000 r
0v
1z
0|
0~
1"!
#1420000
1#
1%
0'
1<
1>
0@
0z
1{
0"!
#1425000
1'
1@
0W
b001 t
1w
1z
1}
1"!
#1430000
0'
0@
0z
0"!
#1435000
1'
1@
1o
b000 t
0w
1z
1|
1~
1"!
#1440000
0#
0'
0<
0@
0z
0{
0"!
#1445000
1'
1@
1W
b01011101 X
b001 r
1v
1z
0}
1"!
#1450000
0'
0@
0z
0"!
#1455000
1'
1@
0o
b000 r
0v
1z
0|
0~
1"!
#1460000
1#
0%
0'
1<
0>
0@
0z
1{
0"!
#1465000
1'
1@
0W
b001 t
1w
1z
1}
1"!
#1470000
0'
0@
0z
0"!
#1475000
1'
1@
1o
b000 t
0w
1z
1|
1~
1"!
#1480000
0#
0'
0<
0@
0z
0{
0"!
#1485000
1'
1@
1W
b10111010 X
b001 r
1v
1z
0}
1"!
#1490000
0'
0@
0z
0"!
#1495000
1'
1@
0o
b000 r
0v
1z
0|
0~
1"!
#1500000
1#
1%
0'
1<
1>
0@
0z
1{
0"!
#1505000
1'
1@
0W
b001 t
1w
1z
1}
1"!
#1510000
0'
0@
0z
0"!
#1515000
1'
1@
1o
b000 t
0w
1z
1|
1~
1"!
#1520000
0#
0'
0<
0@
0z
0{
0"!
#1525000
1'
1@
1W
b01110101 X
b001 r
1v
1z
0}
1"!
#1530000
0'
0@
0z
0"!
#1535000
1'
1@
0o
b000 r
0v
1z
0|
0~
1"!
#1540000
1#
0'
1<
0@
0z
1{
0"!
#1545000
1'
1@
0W
b001 t
1w
1z
1}
1"!
#1550000
0'
0@
0z
0"!
#1555000
1'
1@
1o
b000 t
0w
1z
1|
1~
1"!
#1560000
0#
0'
0<
0@
0z
0{
0"!
#1565000
1'
1@
1W
b11101011 X
b001 r
1v
1z
0}
1"!
#1570000
0'
0@
0z
0"!
#1575000
1'
1@
0o
b000 r
0v
1z
0|
0~
1"!
#1580000
1#
0'
1<
0@
0z
1{
0"!
#1585000
1'
1@
0W
b001 t
1w
1z
1}
1"!
#1590000
0'
0@
0z
0"!
#1595000
1'
1@
1o
b000 t
0w
1z
1|
1~
1"!
#1600000
0#
0'
0<
0@
0z
0{
0"!
#1605000
1'
1@
1W
b11010111 X
b001 r
1v
1z
0}
1"!
#1610000
0'
0@
0z
0"!
#1615000
1'
1@
0o
b000 r
0v
1z
0|
0~
1"!
#1620000
1#
0'
1<
0@
0z
1{
0"!
#1625000
1'
1@
0W
b001 t
1w
1z
1}
1"!
#1630000
0'
0@
0z
0"!
#1635000
1'
1@
1o
b000 t
0w
1z
1|
1~
1"!
#1640000
0#
0'
0<
0@
0z
0{
0"!
#1645000
1'
1@
1W
b10101111 X
b001 r
1v
1z
0}
1"!
#1650000
0'
0@
0z
0"!
#1655000
1'
1@
0o
b000 r
0v
1z
0|
0~
1"!
#1660000
1#
0%
0'
1<
0>
0@
0z
1{
0"!
#1665000
1'
1@
0W
b001 t
1w
1z
1}
1"!
#1670000
0'
0@
0z
0"!
#1675000
1'
1@
1o
b000 t
0w
1z
1|
1~
1"!
#1680000
0#
0'
0<
0@
0z
0{
0"!
#1685000
1'
1@
1W
b01011110 X
b001 r
1v
1z
0}
1"!
#1690000
0'
0@
0z
0"!
#1695000
1'
1@
0o
b000 r
0v
1z
0|
0~
1"!
#1700000
1#
1%
0'
1<
1>
0@
0z
1{
0"!
#1705000
1'
1@
0W
b001 t
1w
1z
1}
1"!
#1710000
0'
0@
0z
0"!
#1715000
1'
1@
1o
b000 t
0w
1z
1|
1~
1"!
#1720000
0#
0'
0<
0@
0z
0{
0"!
#1725000
1'
1@
1W
b10111101 X
b001 r
1v
1z
0}
1"!
#1730000
0'
0@
0z
0"!
#1735000
1'
1@
0o
b000 r
0v
1z
0|
0~
1"!
#1740000
1#
0'
1<
0@
0z
1{
0"!
#1745000
1'
1@
0W
b001 t
1w
1z
1}
1"!
#1750000
0'
0@
0z
0"!
#1755000
1'
1@
1o
b000 t
0w
1z
1|
1~
1"!
#1760000
0#
0'
0<
0@
0z
0{
0"!
#1765000
1'
1@
1W
b01111011 X
b001 r
1v
1z
0}
1"!
#1770000
0'
0@
0z
0"!
#1775000
1'
1@
0o
b000 r
0v
1z
0|
0~
1"!
#1780000
1#
0'
1<
0@
0z
1{
0"!
#1785000
1'
1@
0W
b001 t
1w
1z
1}
1"!
#1790000
0'
0@
0z
0"!
#1795000
1'
1@
1o
b000 t
0w
1z
1|
1~
1"!
#1800000
0#
0'
0<
0@
0z
0{
0"!
#1805000
1'
1@
1W
b11110111 X
b001 r
1v
1z
0}
1"!
#1810000
0'
0@
0z
0"!
#1815000
1'
1@
0o
b000 r
0v
1z
0|
0~
1"!
#1820000
1#
0'
1<
0@
0z
1{
0"!
#1825000
1'
1@
0W
b001 t
1w
1z
1}
1"!
#1830000
0'
0@
0z
0"!
#1835000
1'
1@
1o
b000 t
0w
1z
1|
1~
1"!
#1840000
0#
0'
0<
0@
0z
0{
0"!
#1845000
1'
1@
1W
b11101111 X
b001 r
1v
1z
0}
1"!
#1850000
0'
0@
0z
0"!
#1855000
1'
1@
0o
b000 r
0v
1z
0|
0~
1"!
#1860000
1#
0'
1<
0@
0z
1{
0"!
#1865000
1'
1@
0W
b001 t
1w
1z
1}
1"!
#1870000
0'
0@
0z
0"!
#1875000
1'
1@
1o
b000 t
0w
1z
1|
1~
1"!
#1880000
0#
0'
0<
0@
0z
0{
0"!
#1885000
1'
1@
1W
b11011111 X
b001 r
1v
1z
0}
1"!
#1890000
0'
0@
0z
0"!
#1895000
1'
1@
0o
b000 r
0v
1z
0|
0~
1"!
#1900000
1#
0'
1<
0@
0z
1{
0"!
#1905000
1'
1@
0W
b001 t
1w
1z
1}
1"!
#1910000
0'
0@
0z
0"!
#1915000
1'
1@
1o
b000 t
0w
1z
1|
1~
1"!
#1920000
0#
0'
0<
0@
0z
0{
0"!
#1925000
1'
1@
1W
b10111111 X
b001 r
1v
1z
0}
1"!
#1930000
0'
0@
0z
0"!
#1935000
1'
1@
0o
b000 r
0v
1z
0|
0~
1"!
#1940000
1#
0'
1<
0@
0z
1{
0"!
#1945000
1'
1@
0W
b001 t
1w
1z
1}
1"!
#1950000
0'
0@
0z
0"!
#1955000
1'
1@
1o
b000 t
0w
1z
1|
1~
1"!
#1960000
0#
0'
0<
0@
0z
0{
0"!
#1965000
1'
1@
1W
b01111111 X
b001 r
1v
1z
0}
1"!
#1970000
0'
0@
0z
0"!
#1975000
1'
1@
0o
b000 r
0v
1z
0|
0~
1"!
#1980000
1#
0'
1<
0@
0z
1{
0"!
#1985000
1'
1@
0W
b001 t
1w
1z
1}
1"!
#1990000
0'
0@
0z
0"!
#1995000
1'
1@
1o
b000 t
0w
1z
1|
1~
1"!
#2000000
0#
0'
0<
0@
0z
0{
0"!
#2005000
1'
1@
1W
b11111111 X
b001 r
1v
1z
0}
1"!
#2010000
0'
0@
0z
0"!
#2015000
1'
1@
0o
b000 r
0v
1z
0|
0~
1"!
#2020000
1#
0'
1<
0@
0z
1{
0"!
#2025000
1'
1@
0W
b001 t
1w
1z
1}
1"!
#2030000
0'
0@
0z
0"!
#2035000
1'
1@
1o
b000 t
0w
1z
1|
1~
1"!
#2040000
0#
0'
0<
0@
0z
0{
0"!
#2045000
1'
1@
1W
b001 r
1v
1z
0}
1"!
#2050000
0'
0@
0z
0"!
#2055000
1'
1@
0o
b000 r
0v
1z
0|
0~
1"!
#2060000
1#
0'
1<
0@
0z
1{
0"!
#2065000
1'
1@
0W
b001 t
1w
1z
1}
1"!
#2070000
0'
0@
0z
0"!
#2075000
1'
1@
1o
b000 t
0w
1z
1|
1~
1"!
#2080000
0#
0'
0<
0@
0z
0{
0"!
#2085000
1'
1@
1W
b001 r
1v
1z
0}
1"!
#2090000
0'
0@
0z
0"!
